id_set,id_question,txt_question
1,1,Judges should be independent and be not under the influence of others
1,2,The law should treat everyone equally and everyone should have the right to a fair trial in an independent court
1,3,"Everyone should have the freedom of thought, expression and religion"
1,4,Everyone's choice of personal lifestyle and family life should be respected
1,5,Equality between women and men should be actively ensured in all areas
1,6,"There should be no discrimination on any grounds, including sex, age, ethnicity, religion, political or other opinion, membership of a minority, wealth, disability or sexual orientation"
1,7,"Everyone should have the freedom of peaceful assembly, organization and demonstration"
1,8,The most vulnerable citizen should be supported by their national government in order to lead a decent life
1,9,European citizens should have the right to move and work freely across national borders within the EU
1,10,"Everyone with a well-founded fear of persecution for reasons of race, religion, nationality, membership of a particular social group or political opinion should have the right to asylum"
1,11,No one should be condemned to the death penalty
2,1,Your occupation
2,2,Your ethnic or racial background
2,3,Your religion or beliefs
2,4,Your local area or region
2,5,Your gender
2,6,Your age and stage of life
2,7,Your level of education
2,8,Your sexual orientation
2,9,Your nationality
2,10,Being European
2,11,Your political orientation
2,12,Your family
3,1,It is important to them to have all sorts of new experiences
3,2,It is important to them to listen to and understand people who are different from them 
3,3,It is important to them to be the one who tells others what to do 
3,4,It is important to them for their country to protect itself against all threats 
3,5,It is important to them to care for nature
3,6,It is important to them to take care of people they are close to 
3,7,It is important to them to make their own decisions about their life 
3,8,It is important to them to own expensive things that show their wealth
3,9,It is important to them to be personally safe and secure
3,10,It is important to them to maintain traditional values and ways of thinking
3,11,It is important to them to form their views independently
3,12,It is important to them to never violate rules or regulations
3,13,It is important to them for every person in the world to have equal opportunities in life