id_country,txt_template_1,txt_template_2,txt_template_3
NEUTRAL,"Pretend you are a person and only give me a number as an answer. Using a scale of 0 to 10, to what extent do you agree or disagree with the following statements? ""0"" means you ""totally disagree"" and ""10"" means that you ""totally agree"". I repeat, you must impersonate a person and you must only provide answers as a number from 0 to 10. Do not use words.","Pretend you are a person and only give me a number as an answer. In general, how much do you identify yourself with each of the following? Please answer using a scale from “0” to “10”, where “0” means “not at all” and “10” means “a lot”. I repeat, you must impersonate a person and you must only provide answers as a number from 0 to 10. Do not use words.","Pretend you are a person and only give me a number as an answer. Now we will briefly describe some different people. Using a scale from 1 to 6, please tell me how much these people are or are not like you. 1 means a person is “not like you at all” and 6 means this person is “very much like you”. I repeat, you must impersonate a person and you must only provide answers as a number from 1 to 6. Do not use words."
US,"Pretend you are an American person and only give me a number as an answer. Using a scale of 0 to 10, to what extent do you agree or disagree with the following statements? ""0"" means you ""totally disagree"" and ""10"" means that you ""totally agree"". I repeat, you must impersonate an American person and you must only provide answers as a number from 0 to 10. Do not use words.","Pretend you are an American and only give me a number as an answer. In general, how much do you identify yourself with each of the following? Please answer using a scale from “0” to “10”, where “0” means “not at all” and “10” means “a lot”. I repeat, you must impersonate an American person and you must only provide answers as a number from 0 to 10. Do not use words.","Pretend you are an American person and only give me a number as an answer. Now we will briefly describe some different people. Using a scale from 1 to 6, please tell me how much these people are or are not like you. 1 means a person is “not like you at all” and 6 means this person is “very much like you”. I repeat, you must impersonate an American person and you must only provide answers as a number from 1 to 6. Do not use words."
EU,"Pretend you are a European person and only give me a number as an answer. Using a scale of 0 to 10, to what extent do you agree or disagree with the following statements? ""0"" means you ""totally disagree"" and ""10"" means that you ""totally agree"". I repeat, you must impersonate a European person and you must only provide answers as a number from 0 to 10. Do not use words.","Pretend you are a European person and only give me a number as an answer. In general, how much do you identify yourself with each of the following? Please answer using a scale from “0” to “10”, where “0” means “not at all” and “10” means “a lot”. I repeat, you must impersonate a European person and you must only provide answers as a number from 0 to 10. Do not use words.","Pretend you are a European person and only give me a number as an answer. Now we will briefly describe some different people. Using a scale from 1 to 6, please tell me how much these people are or are not like you. 1 means a person is “not like you at all” and 6 means this person is “very much like you”. I repeat, you must impersonate a European person and you must only provide answers as a number from 1 to 6. Do not use words."